SI.DenoisingStackProcessor	=	0.00000	0
denoise.DenoisingStackProcessor	=	1.00000	4607182418800017408
denoise.FilterActivatedVariable	=	0.00000	0
denoise.FilterSize	=	2.00000	4611686018427387904
denoise.Sigma	=	10.0000	4621819117588971520
filters.FilterWheelPosition	=	1.00000	4607182418800017408
filters.FilterWheelSpeed	=	0.00000	0
lasers.488.CurrentPowerInMilliWatt	=	29.7990	4629284776919570408
lasers.488.TargetPowerInMilliWatt	=	30.0122	4629137466986070016
timelapse.AcquisitionName	=	HisGFP_8Oct2013_specimen1_try2
timelapse.AcquisitionPeriodInMilliseconds	=	1000.00	4652007308841189376
timelapse.Comments	=	null
timelapse.NumberOfPlanes	=	101.000	4636807660098813952
timelapse.NumberOfTimePoints	=	10000.0	4666723172467343360
timelapse.OffsetZ	=	0.00000	0
timelapse.StartZ	=	25.0000	4627730092099895296
timelapse.StopZ	=	75.0000	4634978072750194688
timelapse.exposure.EffectiveExposureInMicroseconds	=	25000.0	4672601161629433856
timelapse.exposure.LineExposureInMicroseconds	=	26558.4	4673029531359615386
timelapse.focus.Pifoc2LightSheetModel	=	y = -2.61362 x + 119.300
timelapse.lightsheet.LightSheetLengthInMicrons	=	55.9055	4633064818644340640
timelapse.lightsheet.LightSheetThetaInDegrees	=	0.00000	0
timelapse.lightsheet.LightSheetYInMicrons	=	0.00000	0
timelapse.lightsheet.LightSheetZInMicrons	=	25.0000	4627730092106448896
timelapse.lightsheet.LockLightSheetToPifoc	=	1.00000	4607182418800017408
timelapse.lightsheet.MicronsToNormGalvoUnit	=	-0.00302600	-4654248133382582722
timelapse.pattern.PatternOnLength	=	1.00000	4607182418800017408
timelapse.pattern.PatternOnOff	=	0.00000	0
timelapse.pattern.PatternPeriod	=	2.00000	4611686018427387904
timelapse.pattern.PatternPhaseIncrement	=	1.00000	4607182418800017408
timelapse.pattern.PatternPhaseIndex	=	0.00000	0
timelapse.stage.StageY	=	125.000	4638496509959077888
timelapse.timming.MarginTimeInMicroseconds	=	100.000	4636737291354636288
timelapse.timming.ReadoutTimeInMicrosecondsPerLine	=	9.74000	4621672750601081979
